%YAML 1.1
%TAG !u! tag:unity3d.com,2011:
--- !u!1045 &1
EditorBuildSettings:
  m_ObjectHideFlags: 0
  serializedVersion: 2
  m_Scenes:
  - enabled: 1
    path: Assets/Scenes/Set resolution.unity
    guid: 753611a062c6f3145ae91c729088df59
  - enabled: 1
    path: Assets/Scenes/Menu.unity
    guid: 3f5b94629593d1045a936ab1c4e16e1c
  - enabled: 1
    path: Assets/Scenes/Gift Plane.unity
    guid: 505c05310ba74cb4692b99751c811f1b
  m_configObjects: {}
